"연번","지정","문화재명","소 재 지","지 정 별","지정일자"
"1","보물","사인비구 제작 동종-서울 화계사 동종","화계사길 117(수유동)","제11-5호","2000.02.15."
"2","보물","화계사 목조지장보살삼존상 및 시왕상 일괄","화계사길 117(수유동)","제1822호","2014.03.11."
"3","사적","북한산성","우이동 산 68-1 외1","제162호","1968.12.05."
"4","명승","삼각산","우이동 산 68-1 외1","제10호","2003.10.31."
"5","등록","서울 창녕위궁 재사","월계로 173 (번동)","제40호","2002.09.13."
"6","등록","서울 이준 묘소","수유동 산127-1","제514호","2012.10.19."
"7","등록","서울 손병희 묘소","우이동 산28-1","제515호","2012.10.19."
"8","등록","서울 이시영 묘소","수유동 산127-1","제516호","2012.10.19."
"9","등록","서울 김창숙 묘소","수유동 산127-4","제518호","2012.10.19."
"10","등록","서울 신익희 묘소","수유동 산127-1외 1","제520호","2012.10.19."
"11","등록","서울 여운형 묘소","우이동 106-1","제530호","2013.02.21."
"12","유형","봉황각","삼양로173길 107-12 (우이동)","제2호","1969.09.18."
"13","유형","도선사 마애불입상","삼양로173길 504 (우이동)","제34호","1977.09.05."
"14","유형","화계사 대웅전","화계사길 117(수유동)","제65호","1985.12.05."
"15","유형","본원정사 목 보살좌상(지장보살)","삼각산로 1 (수유동)","제136호","2001.09.15."
"16","유형","도선사 목 아미타불?대세지보살상","삼양로173길 504 (우이동)","제191호","2004.09.30."
"17","유형","도선사 석 독성상","삼양로173길 504 (우이동)","제192호","2004.09.30."
"18","유형","도선사 청동 종 및 일괄 유물","삼양로173길 504 (우이동)","제259호","2008.05.13."
"18","유형","동 종(銅 鐘)","삼양로173길 504 (우이동)","제259-1호","2008.05.13."
"18","유형","청동숟가락(靑銅匙)","삼양로173길 504 (우이동)","제259-2호","2008.05.13."
"18","유형","청동젓가락(靑銅箸)","삼양로173길 504 (우이동)","제259-3호","2008.05.13."
"18","유형","청동국자(請銅杓子)","삼양로173길 504 (우이동)","제259-4호","2008.05.13."
"18","유형","일본 봉래문경(日本 蓬萊文鏡)","삼양로173길 504 (우이동)","제259-5호","2008.05.13."
"18","유형","상평통보","삼양로173길 504 (우이동)","제259-6호","2008.05.13."
"19","유형","화계사 목조관음보살좌상 및 복장유물","화계사길 117(수유동)","제385호","2016.08.04."
"20","유형","화계사 아미타괘불도 및 오여래도","화계사길 117(수유동)","제386호","2016.08.04."
"21","유형","화계사 천수천안관음변상판","화계사길 117(수유동)","제387호","2016.08.04."
"22","유형","화계사 탑다라니판","화계사길 117(수유동)","제388호","2016.08.04."
"23","유형","화계사 아미타후불도","화계사길 117(수유동)","제389호","2016.08.04."
"24","유형","화계사 명부전 지장보살도","화계사길 117(수유동)","제390호","2016.08.04."
"25","유형","화계사 명부전 십대왕도","화계사길 117(수유동)","제391호","2016.08.04."
"26","유형","화계사 명부전 시왕도 및 사자도","화계사길 117(수유동)","제392호","2016.08.04."
"27","유형","도선사 석조관음보살좌상","삼양로173길 504(우이동)","제396호","2016.12.08."
"28","유형","현수제승법수 ","4.19로28길 101(운가사)","제433호","2018.12.13."
"29","무형","삼각산 도당제","삼양로 173길 116-28 (초가집 뒷산 전승지)","제42호","2010.11.04."
"30","기념물","수유동 분청사기 가마터","수유동 산127-1","제36호","2014.03.27."
"31","기념물","사릉 석물 채석장 터","수유동 산 127-1 산 86-1","제44호","2019.08.08."
"32","문화재자료","천지명양수륙재의찬요","4.19로28길 101(운가사)","제67호","2016.10.06."
"33","문화재자료","송계별업 터","수유동 산127-1","제75호","2019.08.08."