"키","명칭","대분류","중분류","주소","도로명 주소","행정 시","행정 구","행정 동","대표전화","홈페이지주소","대표자명","담당자명","팩스","이메일"
"BE_IW06-0012","롯데월드","마이스서울","유니크베뉴","","서울시 송파구 올림픽로 240","서울특별시","송파구","","02-411-4922","http://www.lotteworld.com","박동기","심종성","02 411 4949","jssim@lotte.net"
"BE_IW06-0013","루카511","마이스서울","유니크베뉴","","서울특별시 강남구 압구정로73길 22","서울특별시","강남구","","010-7322-0707","http://www.luka511.kr","신혜선","이지선","","leeejisun@gmail.com"
"BE_IW06-0014","메이다이닝","마이스서울","유니크베뉴","","서울특별시 도봉구 도봉로169길 202","서울특별시","도봉구","","010-2002-2979","http://www.maydining.co.kr","한승윤","송효근","02 956 5588","Shkssd2000@naver.com"
"BE_IW06-0015","메이필드 봉래헌","마이스서울","유니크베뉴","","서울특별시 강서구 방화대로 94","서울특별시","강서구","","02-2660-9020","http://www.mayfield.co.kr","이종문","한현정","02 2660 9192","bongraeheon@mayfield.co.kr"
"BE_IW06-0016","무게원","마이스서울","유니크베뉴","","서울특별시 종로구 창의문로5가길 2","서울특별시","종로구","","02-6203-1162","http://www.jfac.or.kr","이성호","심정구","02 6499 0371","simgoo@jfac.or.kr"
"BE_IW06-0017","민가다헌","마이스서울","유니크베뉴","","서울특별시 종로구 인사동10길 23-9","서울특별시","종로구","","010-2478-5211","http://www.minsclub.co.kr","이종원","신용철","02 733 2967","ycshin9@winenara.com"
"BE_IW06-0018","삼원가든","마이스서울","유니크베뉴","","서울시 강남구 언주로 835","서울특별시","강남구","","02-6670-3642","http://www.samwongarden.com","이진애","임영식","02 543 2591","info@dinehill.co.kr"
"BE_IW06-0019","서울마리나 클럽_요트","마이스서울","유니크베뉴","","서울시 영등포구 여의서로 160","서울특별시","영등포구","","02-3780-8446","http://www.seoul-marina.com","이승재","박혜정","02 780 4475","olivia.park@seoul-marina.com"
"BE_IW06-0020","서울여성플라자","마이스서울","유니크베뉴","","서울특별시 동작구 여의대방로54길 18","서울특별시","동작구","","02-810-5113","http://www.seoulwomen.or.kr","이숙진","조용태","02 810 5100","chris@seoulwomen.or.kr"
"BE_IW06-0021","서울중앙우체국","마이스서울","유니크베뉴","","서울시 중구 소공로 70","서울특별시","중구","","02-6450-1520","http://www.koreapost.go.kr/se/100","정지찬","김광현","02 6450 1529","kh4777@koreapost.go.kr"
"BE_IW06-0022","세빛섬","마이스서울","유니크베뉴","서울시 서초구 올림픽로 683번지 세빛섬 1섬 가빛섬","","서울특별시","서초구","천호2동","010-9241-7369","http://www.ficonvention.com","이경진","오윤주","02 537 2499","ficonvention@gmail.com"
"BE_IW06-0023","세종문화회관 삼청각","마이스서울","유니크베뉴","","서울 성북구 대사관로 3","서울특별시","성북구","","02-740-3209","http://www.samcheonggak.or.kr","박인배","이재효","02 3676 3464","philothea21@sejongpac.or.kr"
"BE_IW06-0024","악스코리아","마이스서울","유니크베뉴","","서울시 광진구 구천면로 20","서울특별시","광진구","","02-457-5114","http://www.axhallkorea.com","김기정","윤정해","02 453 9114","ukconl1026@gmail.com"
"BE_IW06-0025","애스톤하우스","마이스서울","유니크베뉴","","서울시 광진구 워커힐로 177","서울특별시","광진구","","02-450-6594","http://www.sheratonwalkerhill.co.kr/","문덕규","정상민","02 450 4863","csm6450@sk.com"
"BE_IW06-0026","영빈관","마이스서울","유니크베뉴","","서울시 중구 동호로 249","서울특별시","중구","","02-2230-5953","http://www.Shilla.net","이부진","이정우","02 2230 3721","linehurt.lee@samsung.com"
"BE_IW06-0027","예술의전당","마이스서울","유니크베뉴","","서울시 서초구 남부순환로 2406","서울특별시","서초구","","02-580-1305","http://www.sac.or.kr","고학찬","김수정","02 580 1304","iris@sac.or.kr"
"BE_IW06-0028","오엔리버스테이션","마이스서울","유니크베뉴","서울특별시 강남구 압구정동 380-2번지 한강잠원지구","","서울특별시","강남구","신사동","02-2299-5577","http://www.onriver.co.kr/","소문섭","김종찬","02 516 8789","onriveron@naver.com"
"BE_IW06-0029","워킹온더클라우드","마이스서울","유니크베뉴","","서울특별시 영등포구 63로 50","서울특별시","영등포구","","02-789-5904","http://www.63restaurant.co.kr","홍원기","유순모","02 789 5760","ct31040@hanwha.com"
"BE_IW06-0030","이도아르쎄","마이스서울","유니크베뉴","","서울특별시 강남구 도산대로 332","서울특별시","강남구","","02-741-2411","http://www.yido.kr","이윤신","서영미","02 518 0756","yido@yido.kr"
"BE_IW06-0031","일민미술관","마이스서울","유니크베뉴","","서울시 종로구 세종대로 152","서울특별시","종로구","","02-2020-2050","http://www.ilmin.org","윤양중","이경언","02 2020 2069","lku@ilmin.org"
"BE_IW06-0032","진진바라","마이스서울","유니크베뉴","","서울시 영등포구 국제금융로 8길 27-8","서울특별시","영등포구","","02-3454-0633","http://www.jinjinbara.com","송명은","김영재","02 3454 0634","Jinjinbara.yjkim@gmail.com"
"BE_IW06-0033","코엑스 아쿠아리움","마이스서울","유니크베뉴","","서울시 강남구 영동대로 513","서울특별시","강남구","","02-6002-6200","http://www.coexaqua.com","배상논","전효경","02 6002 6262","llllssy@coexaqua.com"
"BE_IW06-0034","탑클라우드","마이스서울","유니크베뉴","","서울특별시 종로구 종로 51","서울특별시","종로구","","02-2198-3300","http://www.topcloud.co.kr/","윤영규","김종구","02 2198 3306","jkkim@kodoco.com"
"BE_IW06-0035","프라디아","마이스서울","유니크베뉴","서울시 서초구 잠원동 한강시민공원 잠원지구 121-9프라디아","","서울특별시","서초구","잠원동","02-3477-0033","http://www.fradia.co.kr","권경달","서민주","02 3477 9334","fradiamj@naver.com"
"BE_IW06-0036","한국가구박물관","마이스서울","유니크베뉴","","서울특별시 성북구 대사관로 121","서울특별시","성북구","","02-745-0181","http://www.kofum.com","정미숙","엄현숙","02 745 0031","contact@kofum.com"
"BE_IW06-0037","한국의집","마이스서울","유니크베뉴","","서울특별시 중구 퇴계로36길 10","서울특별시","중구","","02-2270-1123","http://www.koreahouse.or.kr","김기삼","박지영","02 2264 0979","aljy00@chf.or.kr"
"BE_IW06-0038","화수목","마이스서울","유니크베뉴","","서울시 용산구 소월로 268","서울특별시","용산구","","070-7760-5392","","박소희","진소정","02 797 1600","dangdang09@naver.com"
"BE_IW06-0039","에이티센터","마이스서울","컨벤션 센터","","서울특별시 서초구 강남대로 27","서울특별시","서초구","","02-6300-1114","atcenter.at.or.kr ","","김미란","82-2-6300-1611","kimmiran3@at.or.kr"
"BE_IW06-0040","서울무역전시컨벤션센터","마이스서울","컨벤션 센터","","서울시 강남구 남부순환로 3104","서울특별시","강남구","","02-2222-3811","setec.or.kr","","송순남","02-2222-3820","song5090@sba.seoul.kr"
"BE_IW06-0041","코엑스","마이스서울","컨벤션 센터","서울 강남구 삼성동 159 무역센터 코엑스","","서울특별시","강남구","삼성1동","02-6000-1125","www.coex.co.kr","","제임스 장","82-2-6000-1303","sales@coex.co.kr"
"BE_IW06-0042","리베라호텔","마이스서울","컨벤션 호텔","서울특별시 강남구 청담동 53-7","","서울특별시","강남구","청담동","02-541-3111","www.riviera.co.kr","","이승수","02-546-6111","banquet@hotelriviera.co.kr"
"BE_IW06-0043","JW 메리어트 동대문 스퀘어 서울","마이스서울","컨벤션 호텔","","서울 특별시 종로구 청계천로 279","서울특별시","종로구","","02-2276-3000","www.jwmarriottddm.com","","이윤정","02-2276-3001","Yvette.lee@marriott.com"
"BE_IW06-0044","JW 메리어트 호텔 서울","마이스서울","컨벤션 호텔","서울특별시 서초구 반포동 19-3번지","","서울특별시","서초구","반포4동","02-6282-6262","www.marriott.com/seljw","","박성정","02- 6282- 6263","julie.park@marriott.com"
"BE_IW06-0045","스탠포드 호텔 서울","마이스서울","컨벤션 호텔","","서울특별시 마포구 월드컵북로58길 15","서울특별시","마포구","","02-6016-0001","www.stanfordseoul.com","","김에드워드","82-2-6016-0012","edward.kim@stanfordseoul.com"
"BE_IW06-0046","The_K호텔서울","마이스서울","컨벤션 호텔","서울시 서초구 양재동 202","","서울특별시","서초구","양재2동","02-571-8100","www.thek-hotel.co.kr","","성동원","02-571-7055","tony-65@hanmail.net"
"BE_IW06-0047","그랜드 앰배서더 서울","마이스서울","컨벤션 호텔","","서울시 중구 동호로 287","서울특별시","중구","","02-2275-1101","www.ambatel.com","","김연태","02 2272 0773","ambmice2@ambatel.com"
"BE_IW06-0048","그랜드 인터컨티넨탈 서울 파르나스","마이스서울","컨벤션 호텔","","서울시 강남구 테헤란로 521","서울특별시","강남구","","02-555-5656","www.ihg.com/intercontinental/hotels/kr/ko/reservation","","이상옥","02-559-7990","Eunice.choi@ihg.com"
"BE_IW06-0049","그랜드 하얏트 서울","마이스서울","컨벤션 호텔","","서울시 용산구 소월로 322","서울특별시","용산구","","02-797-1234","seoul.grand.hyatt.com","","임은아","02-798-6953","Euna.lim@hyatt.com"
"BE_IW06-0050","그랜드 힐튼 서울","마이스서울","컨벤션 호텔","","서울시 서대문구 연희로 353","서울특별시","서대문구","","02-3216-5656","www.grandhiltonseoul.com","","임현빈","02-3216-7799","hyunbin.lim@hilton.com"
"BE_IW06-0051","노보텔 앰배서더 강남","마이스서울","컨벤션 호텔","서울시 강남구 역삼동 603","","서울특별시","강남구","역삼1동","02-567-1101","ambatel.com/gangnam","","김유건","02-564-4573","nagsales1@ambatel.com"
"BE_IW06-0052","노보텔 앰배서더 독산","마이스서울","컨벤션 호텔","","서울시 금천구 시흥길 309","서울특별시","금천구","","02-838-1101","ambatel.com/doksan","","문영학","02-2-3282-6161","nadsmse2@ambatel.com"
"BE_IW06-0053","라마다 서울 호텔","마이스서울","컨벤션 호텔","서울 강남구 삼성동 112-5","","서울특별시","강남구","삼성2동","02-6202-2000","www.ramadaseoul.co.kr","","장자연","02-6202-2001","jychang@ramadaseoul.co.kr"
"BE_IW06-0054","롯데호텔 서울","마이스서울","컨벤션 호텔","서울시 중구 소공동 1번지","","서울특별시","중구","소공동","02-771-1000","www.lottehotel.com","","정다운","02-417-3655","02mo4@hotellotte.co.kr"
"BE_IW06-0055","롯데호텔월드","마이스서울","컨벤션 호텔","서울특별시 송파구 잠실동 40-1","","서울특별시","송파구","잠실3동","02-419-7000","www.hotellotte.co.kr","","김숙환","02-417-3655","swkim@hotellotte.co.kr"
"BE_IW06-0056","르네상스 서울 호텔","마이스서울","컨벤션 호텔","서울 강남구 역삼동 676","","서울특별시","강남구","역삼1동","02-555-0501","www.marriott.com/selrn","","신영기","02-553-8118","paul.shin@renaissancehotels.com"
"BE_IW06-0057","리츠칼튼 서울","마이스서울","컨벤션 호텔","서울 강남구 역삼동 602","","서울특별시","강남구","역삼1동","02-3451-8000","ritzcarltonseoul.com","","서승원","02-3451-8280","Brandon.seo@ritzcarton.com"
"BE_IW06-0058","메이필드 호텔","마이스서울","컨벤션 호텔","","서울시 강서구 방화대로94","서울특별시","강서구","","02-2660-9000","mayfield.co.kr","","김영진","02-2660-9001","yjkim696@mayfield.co.kr"
"BE_IW06-0059","밀레니엄서울힐튼","마이스서울","컨벤션 호텔","","서울 중구 남대문로5가 395","서울특별시","중구","","02-753-7788","hilton.co.kr","","임구영","02-754-2510","Deepak.Subbaiah@hilton.com"
"BE_IW06-0060","베스트 웨스턴 프리미어 호텔 국도","마이스서울","컨벤션 호텔","서울시 중구 을지로4가 310번지","","서울특별시","중구","을지로동","02-6466-1234","hotelkukdo.com","","이일범","02 6466 1032","yiilbum@hanmail.net"
"BE_IW06-0061","베스트웨스턴 프리미어 강남호텔","마이스서울","컨벤션 호텔","서울 강남구 논현동 205-9","","서울특별시","강남구","논현1동","02-6474-2000","bestwesterngangnam.com","","문윤희","02-6474-2002","mkt@bestwesterngangnam.com"
"BE_IW06-0062","베스트웨스턴 프리미어 서울가든호텔","마이스서울","컨벤션 호텔","서울시 마포구 도화동 169-1","","서울특별시","마포구","도화동","02-717-9441","seoulgarden.co.kr","","정윤호","02-715-9441","yhjeong@seoulgarden.co.kr"
"BE_IW06-0063","빈안트리 클럽_스파 서울","마이스서울","컨벤션 호텔","서울특별시 중구 장충동2가 산5-5","","서울특별시","중구","","02-2250-8000","www.banyantree.com","","권대영","02-2250-8009","Daeyong.Kwon@banyantree.com"
"BE_IW06-0064","삼정호텔","마이스서울","컨벤션 호텔","서울시 강남구 역삼동 604-11번지","","서울특별시","강남구","역삼1동","02-557-1221","samjunghotel.co.kr","","정캐빈","02-556-1126","wwwww@naver.com"
"BE_IW06-0065","서울 웨스틴조선호텔","마이스서울","컨벤션 호텔","서울중구 소공동 87 ㈜조선호텔","","서울특별시","중구","소공동","02-771-0500","echosunhotel.com","","박재명","02-753-6370","jmpark@chosunhotel.co.kr"
"BE_IW06-0066","서울로얄호텔","마이스서울","컨벤션 호텔","서울 중구 명동1가 6번지 서울로얄호텔","","서울특별시","중구","명동","02-756-1112","www.royal.co.kr","","태우석","02-756-1119","Tws9891@royal.co.kr"
"BE_IW06-0067","서울세종호텔","마이스서울","컨벤션 호텔","","서울 중구 서울 중구 퇴계로 145","서울특별시","중구","","02-3705-9115","https://www.sejong.co.kr","","조강연","02-771-4179","cky301@naver.com"
"BE_IW06-0068","서울올림픽파크텔","마이스서울","컨벤션 호텔","서울시 송파구 방이동 88-8","","서울특별시","송파구","오륜동","02-410-2114","parktel.co.kr","","오세규","02-410-2101","osks@kspo.or.kr"
"BE_IW06-0069","서울팔래스호텔","마이스서울","컨벤션 호텔","서울시 서초구 반포동 63-1","","서울특별시","서초구","반포4동","02-532-5000","seoulpalace.co.kr","","최주헌","02-532-0399","jinsujeon@seoulpalace.co.kr"
"BE_IW06-0070","쉐라톤 그랜드 워커힐_더블유 서울 워커힐","마이스서울","컨벤션 호텔","","서울시 광진구 워커힐로 177","서울특별시","광진구","","02-455-5000","sheratonwalkerhill.co.kr","","유장곤","02-452-6860","lukechung@sk.com"
"BE_IW06-0071","쉐라톤 서울 디큐브시티 호텔","마이스서울","컨벤션 호텔","","서울시 구로구 경인로 662","서울특별시","구로구","","02-2211-2000","sheratonseouldcubecity.co.kr","","구정회","02-2211-2150","nick.koo@sheraton.com"
"BE_IW06-0072","신라호텔","마이스서울","컨벤션 호텔","서울시 중구 장충동 2가 202번지","","서울특별시","중구","장충동","02-2230-3131","www.shilla.net","","조시형","02-2230-5073","hajoon.jung@samsung.com"
"BE_IW06-0073","엘루이호텔","마이스서울","컨벤션 호텔","서울시 강남구 청담동 129","","서울특별시","강남구","청담동","02-514-3535","ellui.com","","조성국","02-516-6145","sg5951@hanmail.net"
"BE_IW06-0074","여의도 렉싱턴호텔","마이스서울","컨벤션 호텔","서울 영등포구 여의도동 13-3","","서울특별시","영등포구","여의동","02-6670-7000","thelexington.co.kr","","정설현","02-6670-7299","jsh78@leisurvice.com"
"BE_IW06-0075","오크우드 프리미어 코엑스 센터","마이스서울","컨벤션 호텔","서울특별시 강남구 삼성동 159","","서울특별시","강남구","삼성1동","02-3466-7000","www.oakwoodpremier.co.kr","","","02-3466-7700","yklee@oakwoodpremier.co.kr"
"BE_IW06-0076","인터컨티넨탈 서울 코엑스","마이스서울","컨벤션 호텔","","서울시 강남구 봉은사로 524","서울특별시","강남구","","02-3452-2500","www.iccoex.com","","최윤실","02-3430-8000","eunice.choi@ihg.com"
"BE_IW06-0077","임페리얼펠리스호텔","마이스서울","컨벤션 호텔","서울 강남구 논현동 248-7","","서울특별시","강남구","논현2동","02-3440-8000","imperialpalace.co.kr","","이형석","02-3440-8200","matthew.lee@iphotel.co.kr"
"BE_IW06-0078","파크 하얏트 서울","마이스서울","컨벤션 호텔","","서울시 강남구 테헤란로 606","서울특별시","강남구","","02-2016-1234","parkhyattseoul.com","","김소피아","02-2016-1200","sofia.kim@hyatt.com"
"BE_IW06-0079","플라자 호텔","마이스서울","컨벤션 호텔","서울시 중구 태평로 2가 23","","서울특별시","중구","소공동","02-771-2200","www.hoteltheplaza.com","","정현양","02-755-8897","hyunyj@hanwha.co.kr"
"BE_IW06-0080","호텔프라마","마이스서울","컨벤션 호텔","서울 강남구 청담동 52-3","","서울특별시","강남구","청담동","02-6006-9114","prima.co.kr","","임동리","02-544-8523","drlim@prima.co.kr"
"BE_IW06-0081","훌리데이인 성북 서울호텔","마이스서울","컨벤션 호텔","서울특별시 성북구 종암동 3-1343","","서울특별시","성북구","종암동","02-929-2000","holiday.co.kr","","김한선","02-929-0204","hansunkim@holiday.co.kr"
"BE_IW06-0001","63 컨벤션 센터","마이스서울","유니크베뉴","","서울특별시 영등포구 63로 50","서울특별시","영등포구","","02-789-5704","http://www.63convention.co.kr","홍원기","김보혜","02 789 5760","sharonbohay@hanwha.com"
"BE_IW06-0002","700 요트클럽","마이스서울","유니크베뉴","서울시 마포구 상암동 487-254","","서울특별시","마포구","상암동","010-8192-9820","http://www.700yachtclub.com","이은정","이정욱","02 789 5760","700yacht@yachtavenue.com"
"BE_IW06-0003","AW컨벤션센터","마이스서울","유니크베뉴","","서울 종로구 자하문로 255","서울특별시","종로구","","02-396-2442-010-7258-8155","http://www.awconventioncenter.co.kr","황의암","이상욱","02 396 3124","sulee8155@naver.com"
"BE_IW06-0004","KTNG상상마당","마이스서울","유니크베뉴","","서울특별시 마포구 어울마당로 65","서울특별시","마포구","","02-330-6205","http://www.sangsangmadang.com","","문현식","02 330 6220","hs.moon@ssmadang.co.kr"
"BE_IW06-0005","가나아트센터","마이스서울","유니크베뉴","","서울특별시 종로구 평창30길 28","서울특별시","종로구","","02-3217-1093","http://www.ganaart.com","이정용","이정권","02 395 0331","jklee@ganaart.com"
"BE_IW06-0006","국립중앙극장","마이스서울","유니크베뉴","","서울특별시 중구 장충단로 59","서울특별시","중구","","02-2280-4292","http://www.ntok.go.kr","안호상","류혜인","02 2280 4007","foryou0705@korea.kr"
"BE_IW06-0007","국립중앙박물관","마이스서울","유니크베뉴","","서울시 용산구 서빙고로 137","서울특별시","용산구","","02-2077-9000-02-2077-9227","http://museum.go.kr","김영나","이가영","02 2077 9937","kaounglee@korea.kr"
"BE_IW06-0008","나인트리컨벤션센터 광화문","마이스서울","유니크베뉴","","서울시 종로구 종로33","서울특별시","종로구","","02-2158-9000","http://www.eninetree.com","신동렬","김지혜","02-2158-9009","Jh_kim1@parnas.co.kr"
"BE_IW06-0009","동대문디자인플라자","마이스서울","유니크베뉴","","서울시 중구 을지로 281","서울특별시","중구","","02-2153-0072","http://www.ddp.or.kr","백종원","김용미","02 2153 0070","mei@seouldesign.or.kr"
"BE_IW06-0010","두가헌","마이스서울","유니크베뉴","서울시 종로구 삼청동14","","서울특별시","종로구","삼청동","02-3210-2100","http://www.dugahun.com","박현진","김희전","02 3210 2085","dugahun@dugahun.com"
"BE_IW06-0011","라움","마이스서울","유니크베뉴","","서울시 강남구 언주로 564","서울특별시","강남구","","02-6925-4740","http://www.theraum.co.kr","박성찬","김아현","02 523 2619","alexiakim@theraum.co.kr"